INDEX VERSION 1.131+C:\my_learning\java_ydp_202012\java_ydp_202012\workspaces\Binary\.metadata\.plugins\org.eclipse.jdt.core
2718724249.index
2341175630.index
1574205687.index
3928393781.index
309014705.index
2949916747.index
1544125000.index
2575898328.index
438487549.index
62097186.index
4293513756.index
4140368448.index
2113537760.index
4199355040.index
735614560.index
1804007303.index
2437137531.index
294814919.index
3904719612.index
3464892138.index
299069673.index
2176736515.index
